{
  "project_info": {
    "project_number": "495089390185",
    "project_id": "real-esign-2",
    "storage_bucket": "real-esign-2.appspot.com"
  },
  "client": [
    {
      "client_info": {
        "mobilesdk_app_id": "1:495089390185:android:c904ec4ffb3dc1b75148f8",
        "android_client_info": {
          "package_name": "com.example.real_e_sign"
        }
      },
      "oauth_client": [],
      "api_key": [
        {
          "current_key": "AIzaSyC4kOj7Itm_rjNBIz4nMDhk99oa8Wsowzo"
        }
      ],
      "services": {
        "appinvite_service": {
          "other_platform_oauth_client": []
        }
      }
    }
  ],
  "configuration_version": "1"
}